{
  "_links": {
    "self": {
      "href": "https://acc.api.data.amsterdam.nl/v1/overlastgebieden/alcoholverbod/"
    },
    "next": {
      "href": "https://acc.api.data.amsterdam.nl/v1/overlastgebieden/alcoholverbod/?_format=json&page=2"
    },
    "previous": {
      "href": null
    }
  },
  "_embedded": {
    "alcoholverbod": [
      {
        "_links": {
          "schema": "https://schemas.data.amsterdam.nl/datasets/overlastgebieden/overlastgebieden#alcoholverbod",
          "self": {
            "href": "https://acc.api.data.amsterdam.nl/v1/overlastgebieden/alcoholverbod/1/?_format=json",
            "title": "AVG"
          }
        },
        "id": 1,
        "url": "https://zoek/officielebekendmakingen.nl",
        "type": "AVG",
        "soort": null,
        "geometry": {
          "type": "MultiPolygon",
          "coordinates": [
            [
              [
                [125199.479, 480528.67],
                [125146.62, 480624.45900000026],
                [125139.93767940807, 480638.60448532604],
                [125133.59, 480648.07900000026],
                [125080.719, 480743.86],
                [125068.131, 480766.631],
                [125223.4, 480854.72],
                [125254.617, 480872.006],
                [125367.95, 480933.041],
                [125382.629, 480940.479],
                [125406.443, 480953.919],
                [125411.075, 480957.637],
                [125415.251, 480962.204],
                [125415.968, 480964.4230000005],
                [125416.36, 480969.642],
                [125413.15, 480978.42],
                [125412.254, 480985.066],
                [125418.78160391355, 480995.12662365293],
                [125519.371, 481052.649],
                [125539.885, 481059.793],
                [125581.74719492627, 481083.30088896037],
                [125676.45, 481136.542],
                [125688.58, 481135.559],
                [125697.237, 481125.507],
                [125700.103, 481121.348],
                [125708.634, 481123.485],
                [125727.769, 481134.46],
                [125757.73922773957, 481151.0790522809],
                [125778.705, 481114.23100000026],
                [125806.034, 481064.72000000026],
                [125813.547, 481056.23100000026],
                [125824.372, 481036.647],
                [125822.146, 481035.418],
                [125843.804, 480996.077],
                [125845.747, 480992.12200000026],
                [125848.953, 480982.105],
                [125851.512, 480977.635],
                [125856.399, 480971.65600000025],
                [125859.87, 480968.65000000026],
                [125865.039, 480965.306],
                [125871.65, 480962.539],
                [125876.821, 480961.304],
                [125883.969, 480960.82900000026],
                [125890.644, 480961.61800000025],
                [125896.537, 480963.396],
                [125900.687, 480965.342],
                [125907.089, 480969.67700000026],
                [125910.839, 480973.306],
                [125918.97807082439, 480960.28588709905],
                [125917.636, 480946.903],
                [125894.60998416066, 480872.1692697058],
                [125901.087, 480869.898],
                [125905.685, 480866.0909999998],
                [125908.23599999976, 480860.691],
                [125908.82682599593, 480852.0041605265],
                [125907.21099999976, 480848.3069999998],
                [125902.592, 480839.773],
                [125900.083, 480834.476],
                [125900.33915922856, 480830.24706904363],
                [125899.70799999977, 480825.839],
                [125898.95991337896, 480823.03008260037],
                [125897.72600000024, 480819.774],
                [125895.56484667206, 480815.49469969654],
                [125893.955, 480812.438],
                [125892.791, 480810.756],
                [125890.153295398, 480807.685097625],
                [125888.3714608841, 480805.3815551019],
                [125886.39162514686, 480803.4604588461],
                [125884.21477925993, 480801.7025689511],
                [125881.13922947907, 480799.7262742691],
                [125876.29443083191, 480798.02760849526],
                [125870.846, 480797.653],
                [125865.3975691681, 480797.2783915048],
                [125850.371, 480789.27400000027],
                [125844.422, 480781.82900000026],
                [125841.759, 480777.792],
                [125837.07065090633, 480770.6846529138],
                [125832.829, 480766.67700000026],
                [125820.792, 480759.707],
                [125833.716, 480727.09000000026],
                [125836.304, 480719.17600000027],
                [125837.026, 480713.66600000026],
                [125836.756, 480704.86700000026],
                [125835.818, 480700.852],
                [125834.933, 480697.048],
                [125833.407, 480692.461],
                [125828.4, 480685.2],
                [125824.257, 480680.211],
                [125769.889, 480619.488],
                [125747.59, 480603.907],
                [125689.294, 480710.63900000026],
                [125679.52, 480725.439],
                [125672.72, 480732.97000000026],
                [125666.37, 480742.99],
                [125661.31154284358, 480744.4842917829],
                [125654.20209627462, 480744.930588027],
                [125236.929, 480515.013],
                [125214.38102514553, 480501.7212783327],
                [125199.479, 480528.67]
              ]
            ]
          ]
        },
        "oovNaam": "AmsterdamsePoort"
      },
      {
        "_links": {
          "schema": "https://schemas.data.amsterdam.nl/datasets/overlastgebieden/overlastgebieden#alcoholverbod",
          "self": {
            "href": "https://acc.api.data.amsterdam.nl/v1/overlastgebieden/alcoholverbod/2/?_format=json",
            "title": "AVG"
          }
        },
        "id": 2,
        "url": "https://zoek/officielebekendmakingen.nl",
        "type": "AVG",
        "soort": null,
        "geometry": {
          "type": "MultiPolygon",
          "coordinates": [
            [
              [
                [120505.70789614988, 488110.4909012206],
                [120511.887, 488108.882],
                [120549.64, 488117.459],
                [120577.739, 488124.289],
                [120594.1, 488128.507],
                [120633.36, 488137.459],
                [120640.36940358425, 488138.77483537246],
                [120748.63, 488164.579],
                [120749.289, 488165.679],
                [120755.842, 488167.222],
                [120756.978, 488166.484],
                [120805.58, 488177.37],
                [120852.88, 488188.779],
                [120853.694, 488190.094],
                [120860.184, 488191.336],
                [120862.133, 488190.755],
                [120975.259, 488217.969],
                [120975.152, 488218.512],
                [120956.309, 488236.219],
                [120962.84262932086, 488243.7614316292],
                [120970.71918762375, 488236.40748523735],
                [120990.445, 488218.22428623535],
                [120998.31282224799, 488210.7651927264],
                [121010.25239521956, 488199.8053590119],
                [121018.01102225638, 488209.7129989421],
                [121056.15246217322, 488174.488047355],
                [121051.566, 488166.40100000094],
                [121051.566, 488163.579],
                [121045.57099999905, 488155.274],
                [121035.2, 488163.154],
                [121020.547, 488176.877],
                [121019.98679596328, 488177.2675126162],
                [121019.07726472522, 488177.3198112562],
                [121018.13970509433, 488176.9537207773],
                [121017.369, 488176.0789999998],
                [120998.574, 488143.23],
                [120919.6708742559, 488004.919],
                [120908.91, 488003.789],
                [120908.296, 488004.727],
                [120875.548, 487995.514],
                [120804.229, 487974.31],
                [120795.408, 487971.714],
                [120693.571, 487941.574],
                [120686.816, 487939.495],
                [120563.156, 487902.989],
                [120554.533, 487900.654],
                [120420.045, 487861.729],
                [120417.25099999977, 487860.617],
                [120414.96816813516, 487859.1930255673],
                [120412.287, 487856.92784072855],
                [120406.11853419495, 487859.46759342647],
                [120410.413, 487870.073],
                [120416.883, 487886.196],
                [120424.99033588219, 487906.013280751],
                [120457.66262279058, 487988.6857346699],
                [120462.42587196923, 488000.7381196578],
                [120496.50161622501, 488087.0668307295],
                [120505.70789614988, 488110.4909012206]
              ],
              [
                [120581.194, 488006.767],
                [120528.58, 487997.829],
                [120552.9, 487930.019],
                [120647.809, 487957.61],
                [120667.77, 487963.205],
                [120677.91, 487966.499],
                [120678.449, 487967.569],
                [120660.557, 488021.09999999974],
                [120660.37452728701, 488021.46147769975],
                [120660.14406604123, 488021.67921081255],
                [120659.86239118552, 488021.84571260476],
                [120659.55510952474, 488021.92255958583],
                [120659.168, 488021.898],
                [120632.132, 488016.285],
                [120581.194, 488006.767]
              ],
              [
                [120540.499, 488086.39],
                [120543.121, 488070.473],
                [120548.822, 488036.1230000007],
                [120552.969, 488009.59],
                [120596.366, 488017.015],
                [120593.242, 488031.946],
                [120598.84, 488033.2],
                [120601.64, 488020.399],
                [120649.13, 488030.089],
                [120654.651, 488038.004],
                [120655.472, 488038.544],
                [120653.22700000025, 488047.266125],
                [120644.595, 488083.469],
                [120643.948, 488083.31],
                [120638.64, 488081.819],
                [120636.018, 488084.512],
                [120637.08, 488088.11],
                [120631.77, 488093.461],
                [120632.226, 488094.111],
                [120640.885, 488095.761],
                [120637.83, 488109.343],
                [120540.499, 488086.39]
              ],
              [
                [120543.769, 487927.41],
                [120545.324, 487928.725],
                [120545.418, 487930.853],
                [120521.99881311847, 487996.78679833625],
                [120463.671, 487987.719],
                [120443.682, 487935.999],
                [120427.155, 487894.743],
                [120427.08150824904, 487894.4637658076],
                [120427.11138285494, 487894.14357005333],
                [120427.25014155722, 487893.8959520035],
                [120427.42720011759, 487893.6824881673],
                [120427.7088749733, 487893.52025565197],
                [120428.078, 487893.472],
                [120433.739, 487894.959],
                [120441.835, 487897.348],
                [120543.769, 487927.41]
              ],
              [
                [120660.66, 488055.4],
                [120661.65, 488054.779],
                [120713.469, 488069.679],
                [120767.979, 488085.709],
                [120768.65, 488087.049],
                [120756.309, 488136.179],
                [120755.766, 488136.044],
                [120754.648, 488136.694],
                [120754.519, 488137.239],
                [120667.529, 488116.755],
                [120648.092, 488111.926],
                [120647.80926615978, 488111.8221714707],
                [120647.58590167903, 488111.67091709544],
                [120647.42394471217, 488111.51234396006],
                [120647.30444628836, 488111.3732875183],
                [120647.21280548787, 488111.19275810244],
                [120647.11422430801, 488110.94392025925],
                [120647.07764315773, 488110.65848861553],
                [120647.117, 488110.288],
                [120660.66, 488055.4]
              ],
              [
                [120867.07, 488162.529],
                [120877.769, 488117.559],
                [120905.645, 488125.833],
                [120992.081, 488150.394],
                [121011.59, 488184.709],
                [121000.38, 488194.819],
                [120936.364, 488179.782],
                [120914.577, 488174.709],
                [120893.118, 488169.877],
                [120883.58, 488167.91],
                [120872.534, 488164.993],
                [120868.02, 488164.007],
                [120868.099, 488163.643],
                [120867.406, 488162.614],
                [120867.07, 488162.529]
              ],
              [
                [120774.989, 488088.739],
                [120776.09, 488088.14],
                [120871.309, 488115.59],
                [120860.17, 488162.269],
                [120820.711, 488152.87],
                [120763.709, 488139.279],
                [120762.91, 488138.009],
                [120774.989, 488088.739]
              ],
              [
                [120673.64, 488004.949],
                [120685.41, 487969.64],
                [120686.549, 487969.059],
                [120711.27132615399, 487976.2554604347],
                [120790.894, 487999.495],
                [120781.07, 488036.61],
                [120780.029, 488037.199],
                [120674.289, 488006.269],
                [120673.64, 488004.949]
              ],
              [
                [120791.595, 488022.359],
                [120796.938, 488001.46],
                [120808.179, 488004.209],
                [120891.89, 488028.42],
                [120882.87, 488067.1],
                [120789.061, 488040.004],
                [120788.276, 488038.631],
                [120789.059, 488035.89],
                [120787.956, 488035.575],
                [120791.595, 488022.359]
              ],
              [
                [120663.299, 488045.36],
                [120671.549, 488014.205],
                [120709.978, 488025.225],
                [120778.86, 488045.569],
                [120770.959, 488076.89],
                [120769.979, 488077.459],
                [120721.532, 488063.248],
                [120664.107, 488046.781],
                [120663.299, 488045.36]
              ],
              [
                [120777.689, 488078.759],
                [120785.492, 488047.475],
                [120880.66, 488075.35],
                [120873.082, 488109.2669999993],
                [120778.36, 488079.999],
                [120777.689, 488078.759]
              ],
              [
                [120498.09, 488000.115],
                [120519.179, 488003.63],
                [120519.999, 488004.769],
                [120499.744, 488075.359],
                [120497.78, 488075.32],
                [120490.937, 488056.762],
                [120466.769, 487995.789],
                [120467.07, 487995.65],
                [120498.09, 488000.115]
              ],
              [
                [120506.17, 488076.969],
                [120526.269, 488005.929],
                [120527.539, 488005.15],
                [120546.59, 488008.63],
                [120534.299, 488084.88],
                [120506.85, 488078.16],
                [120506.17, 488076.969]
              ],
              [
                [120886.009, 488083.479],
                [120899.988, 488075.074],
                [120900.779, 488071.84],
                [120902.85, 488069.39],
                [120915.84499999833, 488072.57],
                [120920.199, 488079.4],
                [120924.94, 488087.05],
                [120932.439, 488099.429],
                [120905.709, 488115.759],
                [120890.983, 488112.038],
                [120885.749, 488110.829],
                [120881.14, 488103.39],
                [120883.697, 488092.482],
                [120886.009, 488083.479]
              ]
            ]
          ]
        },
        "oovNaam": "Anjeliersbuurt"
      },
      {
        "_links": {
          "schema": "https://schemas.data.amsterdam.nl/datasets/overlastgebieden/overlastgebieden#alcoholverbod",
          "self": {
            "href": "https://acc.api.data.amsterdam.nl/v1/overlastgebieden/alcoholverbod/3/?_format=json",
            "title": "AVG"
          }
        },
        "id": 3,
        "url": "https://zoek/officielebekendmakingen.nl",
        "type": "AVG",
        "soort": null,
        "geometry": {
          "type": "MultiPolygon",
          "coordinates": [
            [
              [
                [124110.49490968203, 490258.2969406173],
                [124225.2060435474, 490403.12751812174],
                [124265.172, 490375.994],
                [124269.256, 490373.32900000026],
                [124274.486, 490369.862],
                [124308.019, 490347.636],
                [124312.28, 490345.277],
                [124319.875, 490341.615],
                [124329.766, 490336.6540000003],
                [124343.484, 490327.793],
                [124391.418, 490296.1160000003],
                [124471.866, 490242.75800000026],
                [124480.441, 490237.04100000026],
                [124484.23023058749, 490235.16032568074],
                [124489.4100606239, 490233.46633933805],
                [124493.6933816154, 490233.0179311886],
                [124500.021, 490233.271],
                [124514.642, 490235.933],
                [124519.19408333254, 490236.15678823495],
                [124524.772, 490235.15500000026],
                [124530.76, 490232.759],
                [124533.77, 490230.87],
                [124599.13280648875, 490187.18065368413],
                [124623.518, 490170.571],
                [124643.717, 490156.898],
                [124650.173, 490152.072],
                [124671.053, 490136.37800000026],
                [124687.978, 490125.00200000027],
                [124690.179, 490123.05700000026],
                [124702.944, 490114.697],
                [124705.39, 490112.12800000026],
                [124797.427, 490051.188],
                [124814.94650932669, 490039.58789462544],
                [124719.511, 489894.4910000003],
                [124701.40020804096, 489867.37845261814],
                [124680.499, 489881.284],
                [124580.36, 489947.63900000026],
                [124556.22443767381, 489963.63192221976],
                [124364.171, 490091.142],
                [124298.326, 490134.48],
                [124158.00242515636, 490226.837125],
                [124110.49490968203, 490258.2969406173]
              ]
            ]
          ]
        },
        "oovNaam": "Buikslotermeerplein"
      }
    ]
  },
  "page": {
    "number": 1,
    "size": 20,
    "totalElements": 58,
    "totalPages": 3
  }
}
