{
  "_links": {
    "self": {
      "href": "https://acc.api.data.amsterdam.nl/v1/overlastgebieden/cameratoezicht/"
    },
    "next": {
      "href": "https://acc.api.data.amsterdam.nl/v1/overlastgebieden/cameratoezicht/?_format=json&page=2"
    },
    "previous": {
      "href": null
    }
  },
  "_embedded": {
    "cameratoezicht": [
      {
        "_links": {
          "schema": "https://schemas.data.amsterdam.nl/datasets/overlastgebieden/overlastgebieden#cameratoezicht",
          "self": {
            "href": "https://acc.api.data.amsterdam.nl/v1/overlastgebieden/cameratoezicht/1/?_format=json",
            "title": "CTG"
          }
        },
        "id": 1,
        "url": null,
        "type": "CTG",
        "soort": null,
        "geometry": {
          "type": "MultiPolygon",
          "coordinates": [
            [
              [
                [125715.23707058335, 480702.09359909914],
                [125688.5384083438, 480753.6567549157],
                [124991.58998293662, 480356.38937327336],
                [124913.10355301881, 480499.1090271707],
                [124849.3168303547, 480463.91465238715],
                [124844.65797906209, 480472.688588121],
                [124830.69084950948, 480464.7737512775],
                [124841.22774669957, 480445.86097369745],
                [124836.03125640178, 480442.52130660845],
                [124831.13793159532, 480449.7500849135],
                [124818.18521675134, 480472.85011374403],
                [124742.97529731799, 480431.09538076783],
                [124686.94062635493, 480400.3730664053],
                [124714.3533616085, 480350.9697830677],
                [124720.94852818895, 480338.7902483144],
                [124776.24636295367, 480243.30821234535],
                [124755.68729970575, 480231.53956498526],
                [124733.94381455588, 480221.2692190132],
                [124700.48458295417, 480283.5161623943],
                [124692.16368999863, 480298.98865359166],
                [124651.42635354806, 480383.05536329676],
                [124641.2506536832, 480401.83281086205],
                [124629.84665997911, 480421.5858412583],
                [124645.4944100852, 480429.9126073628],
                [124627.32745047926, 480463.32615705824],
                [124598.85358748889, 480447.4899363103],
                [124577.90453088832, 480438.77312078094],
                [124567.41234530401, 480458.14238378097],
                [124553.75293107438, 480451.55050036096],
                [124519.21046237135, 480432.59214684437],
                [124491.18016743685, 480483.2020249329],
                [124546.93123522401, 480508.7944983585],
                [124588.97211318636, 480525.1366659701],
                [124562.22305970025, 480561.2402710829],
                [124548.97551211524, 480551.7195632286],
                [124531.8936497221, 480575.1239573958],
                [124535.64268499089, 480578.1718054781],
                [124538.57375284028, 480581.2803289542],
                [124539.34045459986, 480583.9682495072],
                [124538.32323288846, 480588.213762135],
                [124535.42065598918, 480590.83527711703],
                [124532.22660227418, 480592.63521945337],
                [124529.67482029296, 480593.52994867257],
                [124520.35102783632, 480607.6514779134],
                [124527.41971812797, 480611.58011308673],
                [124532.66181177307, 480625.63412019634],
                [124466.0346273806, 480617.6556645222],
                [124469.94704956388, 480651.57885503245],
                [124473.81148176694, 480685.4689666388],
                [124449.39790936971, 480727.3446358328],
                [124475.57185328579, 480741.9591372819],
                [124465.39675218512, 480760.6034466014],
                [124414.0377327919, 480732.4923616984],
                [124386.79387915516, 480781.90746531344],
                [124436.24443371821, 480809.11768053344],
                [124428.63692777896, 480822.78371813154],
                [124364.09828609873, 480787.1996818242],
                [124321.2968048687, 480766.73616893054],
                [124232.71922598768, 480718.08461999084],
                [124151.49387022639, 480674.23998313764],
                [124111.06416126585, 480749.90876749804],
                [124420.02992184115, 480917.3911048911],
                [124420.7708139236, 480946.7719721894],
                [124415.0052170899, 480964.9329319415],
                [124379.08083544088, 481029.53405060386],
                [124373.78898523378, 481043.77555116557],
                [124496.26969820833, 481111.3135999978],
                [124516.34485181927, 481130.2385756214],
                [124538.49635034561, 481147.5374746807],
                [124561.03626164151, 481131.598808888],
                [124563.60818862653, 481131.8055060799],
                [124566.45155832004, 481129.58492624474],
                [124566.77298469162, 481129.738720417],
                [124571.19091158724, 481126.3178999772],
                [124587.2549145472, 481113.9797453463],
                [124592.31959898281, 481110.3880657218],
                [124592.14769972826, 481110.1554636762],
                [124595.98786940718, 481107.0275122123],
                [124595.57643356014, 481106.651736969],
                [124617.77260538077, 481087.9782953992],
                [124630.07344734264, 481076.84283517743],
                [124641.59368287039, 481065.16699465277],
                [124645.07826126028, 481061.8632396033],
                [124648.47256368304, 481058.29300205706],
                [124655.4299400475, 481050.8733323021],
                [124668.90209376837, 481036.1257515373],
                [124681.03453804899, 481020.8412195263],
                [124687.06161465908, 481012.9266025467],
                [124693.12989529347, 481005.05624712375],
                [124708.32304998279, 480982.9101420827],
                [124714.12268174339, 480973.4726042221],
                [124719.64958848548, 480964.03674392606],
                [124725.21627042246, 480954.41149380186],
                [124730.32618876077, 480944.8001735654],
                [124742.89661235595, 480920.7898382259],
                [124756.29440954256, 480897.1305275374],
                [124759.7478781426, 480888.70879600954],
                [124760.6858218329, 480887.08969747904],
                [124772.74943650198, 480867.13263610506],
                [124785.76667020177, 480844.7552989991],
                [124803.68435459948, 480815.2492757774],
                [124814.5017667923, 480797.7477913399],
                [124821.14484326149, 480785.65709848335],
                [124852.05928299547, 480728.01058912376],
                [124979.42015976334, 480744.4484946308],
                [125314.3765861206, 480923.15565397573],
                [125246.4282680471, 481043.73166131927],
                [125297.8773411615, 481072.28474612406],
                [125366.82019889593, 481043.54262485984],
                [125377.02651103711, 481048.9891355405],
                [125396.94332584454, 481036.3078753214],
                [125426.39524823785, 480982.96860663104],
                [125728.33337850905, 481140.2933873591],
                [125805.6883274219, 481018.55584602593],
                [125676.4174131713, 480952.00489140605],
                [125708.5259886427, 480881.49434334686],
                [125771.92390503336, 480855.19412531616],
                [125825.70864989996, 480759.74392868974],
                [125715.23707058335, 480702.09359909914]
              ]
            ]
          ]
        },
        "oovNaam": "ArenApoort"
      },
      {
        "_links": {
          "schema": "https://schemas.data.amsterdam.nl/datasets/overlastgebieden/overlastgebieden#cameratoezicht",
          "self": {
            "href": "https://acc.api.data.amsterdam.nl/v1/overlastgebieden/cameratoezicht/2/?_format=json",
            "title": "CTG"
          }
        },
        "id": 2,
        "url": "https://zoek/officielebekendmakingen.nl",
        "type": "CTG",
        "soort": null,
        "geometry": {
          "type": "MultiPolygon",
          "coordinates": [
            [
              [
                [122689.895, 490132.607],
                [122744.182, 490142.318],
                [122741.89312500168, 490124.7328125019],
                [122754.84731249906, 490101.978625],
                [122767.81618750095, 490076.082687501],
                [122777.60437500096, 490054.6336875],
                [122786.09962499904, 490033.5799999981],
                [122797.3856875, 490002.61987499904],
                [122806.66000000048, 490000.436000001],
                [123064.03000000096, 489992.64400000096],
                [123078.399, 489927.555],
                [123082.58500000167, 489906.627],
                [123082.19999999905, 489903.171],
                [123080.681, 489895.515],
                [123080.176, 489893.369],
                [123063.063, 489839.686],
                [123060.424, 489828.547],
                [123057.635, 489813.014],
                [123051.42300000072, 489773.635],
                [123047.747, 489748.438],
                [123046.912, 489736.631],
                [123016.33, 489734.447],
                [122993.333, 489732.037],
                [122978.451, 489727.605],
                [122944.773, 489722.655],
                [122925.34, 489720.315],
                [122906.702, 489717.546],
                [122891.662, 489715.365],
                [122872.333, 489714.42],
                [122856.559, 489712.133],
                [122850.208, 489713.192],
                [122824.58900000072, 489710.65],
                [122818.873, 489674.648],
                [122785.40399999905, 489677.8390000019],
                [122783.09900000072, 489719.88],
                [122785.688, 489729.267],
                [122792.485, 489729.591],
                [122794.103, 489756.459],
                [122789.89600000072, 489757.754],
                [122790.86600000072, 489794.656],
                [122788.925, 489839.652],
                [122783.747, 489884],
                [122786.983, 489885.618],
                [122782.452, 489910.868],
                [122774.03800000071, 489910.868],
                [122769.831, 489921.55],
                [122760.122, 489918.637],
                [122749.11900000072, 489915.723],
                [122739.086, 489913.134],
                [122733.908, 489935.145],
                [122745.235, 489938.705],
                [122756.238, 489941.619],
                [122765.299, 489943.885],
                [122763.681, 489950.359],
                [122766.27, 489954.567],
                [122772.095, 489956.186],
                [122765.94700000071, 489980.788],
                [122764.652, 489980.464],
                [122753.32500000072, 490012.187],
                [122738.762, 490045.853],
                [122721.61, 490081.137],
                [122703.487, 490112.86],
                [122689.895, 490132.607]
              ]
            ]
          ]
        },
        "oovNaam": "Azaleastraat"
      },
      {
        "_links": {
          "schema": "https://schemas.data.amsterdam.nl/datasets/overlastgebieden/overlastgebieden#cameratoezicht",
          "self": {
            "href": "https://acc.api.data.amsterdam.nl/v1/overlastgebieden/cameratoezicht/3/?_format=json",
            "title": "CTG"
          }
        },
        "id": 3,
        "url": "https://zoek/officielebekendmakingen.nl",
        "type": "CTG",
        "soort": null,
        "geometry": {
          "type": "MultiPolygon",
          "coordinates": [
            [
              [
                [124076.568568954, 490243.96664220095],
                [124042.83576655078, 490270.82704123214],
                [124027.6535335505, 490326.4452697394],
                [124066.58598411441, 490375.5817997482],
                [124005.69116787481, 490421.8512223241],
                [123865.51892891669, 490529.9858282788],
                [123875.74795979452, 490582.8182632609],
                [123880.51259476805, 490610.96135870693],
                [123882.79067218542, 490632.24376093724],
                [123901.7943784001, 490725.43359257246],
                [123942.2947103579, 490708.28778688767],
                [123987.42834082604, 490680.0753466115],
                [124029.36014622355, 490665.3580388298],
                [124171.24761587953, 490540.9832839706],
                [124207.66914597464, 490512.2042620042],
                [124220.26613563324, 490497.9500315745],
                [124261.85499777365, 490462.79687225656],
                [124320.7243398199, 490417.7560506306],
                [124397.63220820547, 490365.3047735508],
                [124469.72692227983, 490317.88045436214],
                [124452.24508930325, 490291.9741917017],
                [124443.2666147008, 490278.588609252],
                [124487.75091805554, 490248.8382217372],
                [124488.34000899173, 490249.4465524032],
                [124496.20474318122, 490244.53547803784],
                [124500.31064531494, 490250.3294126141],
                [124506.05979983139, 490246.6998962042],
                [124506.91693201447, 490247.7293910141],
                [124513.43742478252, 490243.3607436762],
                [124525.90910520435, 490262.54419424036],
                [124534.09116911674, 490275.94597195863],
                [124557.14502214862, 490259.66971236514],
                [124541.27052980351, 490234.9994213448],
                [124556.64949183512, 490224.6010245576],
                [124563.52224182963, 490221.05365464283],
                [124664.6217776351, 490154.7825055933],
                [124689.91994937944, 490138.0591283362],
                [124705.62036707235, 490127.8150028739],
                [124691.85837098384, 490106.8253633933],
                [124673.12147337056, 490079.3015286789],
                [124660.39731422473, 490063.3126629796],
                [124633.53593056608, 490022.9652362838],
                [124633.06623639846, 489906.8820562904],
                [124535.72399709035, 489969.52548593475],
                [124514.87330207348, 489983.4627030988],
                [124505.12224151588, 489968.47952620743],
                [124488.04528719712, 489979.5784403944],
                [124332.46287120176, 490082.5763758297],
                [124286.36927739596, 490115.2200203276],
                [124265.41628476763, 490128.9141537266],
                [124255.09964126993, 490112.81117874075],
                [124238.2050766778, 490124.6108228445],
                [124127.84974745417, 490197.80281245994],
                [124076.568568954, 490243.96664220095]
              ]
            ]
          ]
        },
        "oovNaam": "Buikslotermeerplein"
      }
    ]
  },
  "page": {
    "number": 1,
    "size": 20,
    "totalElements": 34,
    "totalPages": 2
  }
}
